35506130183, henn sarv, p
35711290923, kristjan jaak peterson, e
36108300947, juhan saar, kk
36807180331, märt sults, j
37505160906, juhan kuusik, m1
38807090118, kristjan kaasik, m2
45103280919, mari sarv, m3
46711120000, anne veski, f
47306060739, evelin ilves, i
47908240277, lydia koidula, e
48507090720, külli kuusik, k1
49011010005, malle kaasik, k2