37508080000, 60004040000, 60302050000
48502020000, 60004040000, 60302050000
38807070000, 60012120000, 60303310000
49001010000, 60012120000, 60303310000
47611110000, 39801010000, 49902020000, 50005050000, 60106260000, 50302120000
48006240000, 39806060000, 50102220000
37202240000, 49807070000, 60207270000
47303080000, 49807070000, 60207270000
36618110000, 49808080000, 50209290000
36115100000, 39909090000, 60108280000
46015110000, 39909090000, 60108280000
36304050000, 39910100000, 50211210000
46305040000, 39910100000, 50211210000
47005050000, 49903200000, 60205250000
36912310000, 50003030000, 50302020000
47101010000, 50003030000, 50302020000